{
	"info": {
		"_postman_id": "ee2f45df-7000-43bb-be19-50bf733efea7",
		"name": "Practitioner Back End",
		"schema": "https://schema.getpostman.com/json/collection/v2.1.0/collection.json"
	},
	"item": [
		{
			"name": "cliente",
			"item": [
				{
					"name": "agregarCliente",
					"request": {
						"method": "POST",
						"header": [],
						"body": {
							"mode": "raw",
							"raw": "{\r\n        \"documento\": \"12345678\",\r\n        \"nombre\": \"Juan Rodrigez Ledesma\",\r\n        \"edad\": \"38\",\r\n        \"fechaNacimiento\": \"23/01/1985\",\r\n        \"telefono\": \"555 444 328\",\r\n        \"correo\": \"juanrledesma893493@gmail.com\",\r\n        \"direccion\": \"San Juan Capistrano 738/5\"\r\n    }",
							"options": {
								"raw": {
									"language": "json"
								}
							}
						},
						"url": {
							"raw": "http://localhost:9000/api/vi/clientes",
							"protocol": "http",
							"host": [
								"localhost"
							],
							"port": "9000",
							"path": [
								"api",
								"vi",
								"clientes"
							]
						}
					},
					"response": []
				},
				{
					"name": "reemplazarUnCliente",
					"request": {
						"method": "PUT",
						"header": [],
						"body": {
							"mode": "raw",
							"raw": "{\r\n        \"documento\": \"979879\",\r\n        \"nombre\": \"Juan Rodrigez Ledesma\",\r\n        \"edad\": \"38\",\r\n        \"fechaNacimiento\": \"23/01/1999\",\r\n        \"telefono\": \"555 444 328\",\r\n        \"correo\": \"juanrledesma893493@gmail.com\",\r\n        \"direccion\": \"San Juan Capistrano 738/5\"\r\n    }",
							"options": {
								"raw": {
									"language": "json"
								}
							}
						},
						"url": {
							"raw": "http://localhost:9000/api/vi/clientes/12345678",
							"protocol": "http",
							"host": [
								"localhost"
							],
							"port": "9000",
							"path": [
								"api",
								"vi",
								"clientes",
								"12345678"
							]
						}
					},
					"response": []
				},
				{
					"name": "obtenerCliente",
					"protocolProfileBehavior": {
						"disableBodyPruning": true
					},
					"request": {
						"method": "GET",
						"header": [],
						"body": {
							"mode": "raw",
							"raw": "{\r\n        \"documento\": \"12345678\",\r\n        \"nombre\": \"Juan Rodrigez Ledesma\",\r\n        \"edad\": \"38\",\r\n        \"fechaNacimiento\": \"23/01/1985\",\r\n        \"telefono\": \"555 444 328\",\r\n        \"correo\": \"juanrledesma893493@gmail.com\",\r\n        \"direccion\": \"San Juan Capistrano 738/5\"\r\n    }",
							"options": {
								"raw": {
									"language": "json"
								}
							}
						},
						"url": {
							"raw": "http://localhost:9000/api/vi/clientes",
							"protocol": "http",
							"host": [
								"localhost"
							],
							"port": "9000",
							"path": [
								"api",
								"vi",
								"clientes"
							]
						}
					},
					"response": []
				},
				{
					"name": "obtenerUnCliente",
					"protocolProfileBehavior": {
						"disableBodyPruning": true
					},
					"request": {
						"method": "GET",
						"header": [],
						"body": {
							"mode": "raw",
							"raw": "",
							"options": {
								"raw": {
									"language": "json"
								}
							}
						},
						"url": {
							"raw": "http://localhost:9000/api/vi/clientes/12345678",
							"protocol": "http",
							"host": [
								"localhost"
							],
							"port": "9000",
							"path": [
								"api",
								"vi",
								"clientes",
								"12345678"
							]
						}
					},
					"response": []
				}
			]
		},
		{
			"name": "cuenta",
			"item": [
				{
					"name": "obtenerCuenta",
					"protocolProfileBehavior": {
						"disableBodyPruning": true
					},
					"request": {
						"method": "GET",
						"header": [],
						"body": {
							"mode": "raw",
							"raw": "",
							"options": {
								"raw": {
									"language": "json"
								}
							}
						},
						"url": {
							"raw": "http://localhost:9000/api/vi/cuentas",
							"protocol": "http",
							"host": [
								"localhost"
							],
							"port": "9000",
							"path": [
								"api",
								"vi",
								"cuentas"
							]
						}
					},
					"response": []
				},
				{
					"name": "agregarCuenta",
					"request": {
						"method": "POST",
						"header": [],
						"body": {
							"mode": "raw",
							"raw": "{\r\n        \"numero\": \"141349803\",\r\n        \"moneda\": \"PEN\",\r\n        \"saldo\": \"0.00\",\r\n        \"tipo\": \"AHORRO\",\r\n        \"estado\": \"ACTIVA\",\r\n        \"oficina\": \"TEXTO\"\r\n    }",
							"options": {
								"raw": {
									"language": "json"
								}
							}
						},
						"url": {
							"raw": "http://localhost:9000/api/vi/cuentas",
							"protocol": "http",
							"host": [
								"localhost"
							],
							"port": "9000",
							"path": [
								"api",
								"vi",
								"cuentas"
							]
						}
					},
					"response": []
				},
				{
					"name": "reemplazarUnCliente",
					"request": {
						"method": "PUT",
						"header": [],
						"body": {
							"mode": "raw",
							"raw": "{\r\n        \"numero\": \"1413498032\",\r\n        \"moneda\": \"PEN\",\r\n        \"saldo\": \"6.00\",\r\n        \"tipo\": \"AHORRO\",\r\n        \"estado\": \"ACTIVA\",\r\n        \"oficina\": \"TEXTO\"\r\n    }",
							"options": {
								"raw": {
									"language": "json"
								}
							}
						},
						"url": {
							"raw": "http://localhost:9000/api/vi/cuentas/1413498032",
							"protocol": "http",
							"host": [
								"localhost"
							],
							"port": "9000",
							"path": [
								"api",
								"vi",
								"cuentas",
								"1413498032"
							]
						}
					},
					"response": []
				},
				{
					"name": "reemplazarUnCliente Copy",
					"request": {
						"method": "PATCH",
						"header": [],
						"body": {
							"mode": "raw",
							"raw": "{\r\n        \"numero\": \"1413498032\",\r\n        \"moneda\": \"PEN\",\r\n        \"saldo\": \"6.00\",\r\n        \"tipo\": \"AHORRO\",\r\n        \"estado\": \"ACTIVA\",\r\n        \"oficina\": \"TEXTO\"\r\n    }",
							"options": {
								"raw": {
									"language": "json"
								}
							}
						},
						"url": {
							"raw": "http://localhost:9000/api/vi/cuentas/1413498032",
							"protocol": "http",
							"host": [
								"localhost"
							],
							"port": "9000",
							"path": [
								"api",
								"vi",
								"cuentas",
								"1413498032"
							]
						}
					},
					"response": []
				},
				{
					"name": "obtenerUnCliente",
					"protocolProfileBehavior": {
						"disableBodyPruning": true
					},
					"request": {
						"method": "GET",
						"header": [],
						"body": {
							"mode": "raw",
							"raw": "",
							"options": {
								"raw": {
									"language": "json"
								}
							}
						},
						"url": {
							"raw": "http://localhost:9000/api/vi/cuentas/1413498032",
							"protocol": "http",
							"host": [
								"localhost"
							],
							"port": "9000",
							"path": [
								"api",
								"vi",
								"cuentas",
								"1413498032"
							]
						}
					},
					"response": []
				},
				{
					"name": "eliminar",
					"request": {
						"method": "DELETE",
						"header": [],
						"body": {
							"mode": "raw",
							"raw": "",
							"options": {
								"raw": {
									"language": "json"
								}
							}
						},
						"url": {
							"raw": "http://localhost:9000/api/vi/cuentas/1413498032",
							"protocol": "http",
							"host": [
								"localhost"
							],
							"port": "9000",
							"path": [
								"api",
								"vi",
								"cuentas",
								"1413498032"
							]
						}
					},
					"response": []
				}
			]
		},
		{
			"name": "New Request",
			"request": {
				"method": "GET",
				"header": [],
				"url": {
					"raw": "http://localhost:9000",
					"protocol": "http",
					"host": [
						"localhost"
					],
					"port": "9000"
				}
			},
			"response": []
		},
		{
			"name": "hola",
			"request": {
				"method": "GET",
				"header": [],
				"url": {
					"raw": "http://localhost:9000/hola/v1",
					"protocol": "http",
					"host": [
						"localhost"
					],
					"port": "9000",
					"path": [
						"hola",
						"v1"
					]
				}
			},
			"response": []
		},
		{
			"name": "hola Copy",
			"request": {
				"method": "GET",
				"header": [],
				"url": {
					"raw": "http://localhost:9000/hola/v1/saludo?quien=jorge ",
					"protocol": "http",
					"host": [
						"localhost"
					],
					"port": "9000",
					"path": [
						"hola",
						"v1",
						"saludo"
					],
					"query": [
						{
							"key": "quien",
							"value": "jorge "
						}
					]
				}
			},
			"response": []
		},
		{
			"name": "hola Copy",
			"request": {
				"method": "PUT",
				"header": [],
				"url": {
					"raw": "http://localhost:9000/hola/v1",
					"protocol": "http",
					"host": [
						"localhost"
					],
					"port": "9000",
					"path": [
						"hola",
						"v1"
					]
				}
			},
			"response": []
		},
		{
			"name": "New Request Copy",
			"request": {
				"method": "GET",
				"header": [],
				"url": {
					"raw": "https://swapi.dev/api",
					"protocol": "https",
					"host": [
						"swapi",
						"dev"
					],
					"path": [
						"api"
					]
				}
			},
			"response": []
		}
	]
}